br\com\coleta\dto\UserDto.class
br\com\coleta\utils\Validations.class
br\com\coleta\repository\StationsRepository.class
br\com\coleta\dto\ResponseFindDto.class
br\com\coleta\dto\MktProductDto.class
br\com\coleta\repository\ProductRepository.class
br\com\coleta\entity\User.class
br\com\coleta\dto\LoginDto.class
br\com\coleta\dto\StationDto.class
br\com\coleta\security\SecurityConfiguration.class
br\com\coleta\entity\Profile.class
br\com\coleta\entity\LogMarketProduct.class
br\com\coleta\dto\ProductDto.class
br\com\coleta\controller\StationsController.class
br\com\coleta\repository\UserRepository.class
br\com\coleta\controller\MarketProductController.class
br\com\coleta\controller\UserController.class
br\com\coleta\entity\Stations.class
br\com\coleta\security\AuthenticationService.class
br\com\coleta\repository\WebContactsRepository.class
br\com\coleta\entity\WebContacts.class
br\com\coleta\config\SwaggerConfig.class
br\com\coleta\enums\UserProfiles.class
br\com\coleta\repository\ProfileRepository.class
br\com\coleta\entity\Address.class
br\com\coleta\dto\TokenDto.class
br\com\coleta\repository\LogMarketProductRepository.class
br\com\coleta\security\TokenService.class
br\com\coleta\security\AuthenticationTokenFilter.class
br\com\coleta\utils\Converters.class
br\com\coleta\entity\Phones.class
br\com\coleta\controller\ProductController.class
br\com\coleta\entity\Product.class
br\com\coleta\utils\ErrorValidationHandler.class
br\com\coleta\dto\ErrorRequestDto.class
br\com\coleta\app.class
br\com\coleta\repository\PhonesRepository.class
br\com\coleta\dto\UserInsertDto.class
br\com\coleta\repository\MarketProductRepository.class
br\com\coleta\enums\ActionMktProduct.class
br\com\coleta\repository\AddressRepository.class
br\com\coleta\entity\MarketProduct.class
br\com\coleta\controller\AuthenticationController.class
br\com\coleta\controller\RecyclingMapController.class
